1 11.5 0.01645000218 1.09154 1.09222 1.17959 0.01645000218 1.29211 1.29284 1.2742 -25.2497797 0.5525056776 
2 11.5 0.01645000218 1.09154 1.09222 1.17959 0.01645000218 1.29211 1.29284 1.2742 -25.2497797 0.5525056776 
3 11.5 0.01645000218 1.09154 1.09222 1.17959 0.01645000218 1.29211 1.29284 1.2742 -25.2497797 0.5525056776 
4 11.5 0.01645000218 1.09154 1.09222 1.17959 0.01645000218 1.29211 1.29284 1.2742 -25.2497797 0.5525056776 
5 11.5 0.01645000218 1.09154 1.09222 1.17959 0.01645000218 1.29211 1.29284 1.2742 -25.2497797 0.5525056776 
6 11.5 -0.01645000218 1.09154 1.09222 1.17959 -0.01645000218 1.29211 1.29284 1.2742 -154.7502203 0.5525056776 
7 11.5 -0.01645000218 1.09154 1.09222 1.17959 -0.01645000218 1.29211 1.29284 1.2742 -154.7502203 0.5525056776 
8 11.5 -0.01645000218 1.09154 1.09222 1.17959 -0.01645000218 1.29211 1.29284 1.2742 -154.7502203 0.5525056776 
9 11.5 -0.01645000218 1.09154 1.09222 1.17959 -0.01645000218 1.29211 1.29284 1.2742 -154.7502203 0.5525056776 
10 11.5 -0.01645000218 1.09154 1.09222 1.17959 -0.01645000218 1.29211 1.29284 1.2742 -154.7502203 0.5525056776 
11 11.5 0.05527001733 1.09154 1.09368 1.11099 0.05526001578 1.29066 1.29318 1.31115 -45.1215052 0.7036730562 
12 11.5 0.05527001733 1.09154 1.09368 1.11099 0.05526001578 1.29066 1.29318 1.31115 -45.1215052 0.7036730562 
13 11.5 0.05527001733 1.09154 1.09368 1.11099 0.05526001578 1.29066 1.29318 1.31115 -45.1215052 0.7036730562 
14 11.5 0.05527001733 1.09154 1.09368 1.11099 0.05526001578 1.29066 1.29318 1.31115 -45.1215052 0.7036730562 
15 11.5 0.05527001733 1.09154 1.09368 1.11099 0.05526001578 1.29066 1.29318 1.31115 -45.1215052 0.7036730562 
16 11.5 -0.05527001733 1.09154 1.09368 1.11099 -0.05526001578 1.29066 1.29318 1.31115 -134.878507 0.70367306 
17 11.5 -0.05527001733 1.09154 1.09368 1.11099 -0.05526001578 1.29066 1.29318 1.31115 -134.878507 0.70367306 
18 11.5 -0.05527001733 1.09154 1.09368 1.11099 -0.05526001578 1.29066 1.29318 1.31115 -134.878507 0.70367306 
19 11.5 -0.05527001733 1.09154 1.09368 1.11099 -0.05526001578 1.29066 1.29318 1.31115 -134.878507 0.70367306 
20 11.5 -0.05527001733 1.09154 1.09368 1.11099 -0.05526001578 1.29066 1.29318 1.31115 -134.878507 0.70367306 
21 11.5 0.09771009098 1.09154 1.09535 1.11711 0.09772008909 1.28773 1.29221 1.31415 -45.07391 0.6932707675 
22 11.5 0.09771009098 1.09154 1.09535 1.11711 0.09772008909 1.28773 1.29221 1.31415 -45.07391 0.6932707675 
23 11.5 0.09771009098 1.09154 1.09535 1.11711 0.09772008909 1.28773 1.29221 1.31415 -45.07391 0.6932707675 
24 11.5 0.09771009098 1.09154 1.09535 1.11711 0.09772008909 1.28773 1.29221 1.31415 -45.07391 0.6932707675 
25 11.5 0.09771009098 1.09154 1.09535 1.11711 0.09772008909 1.28773 1.29221 1.31415 -45.07391 0.6932707675 
26 11.5 -0.09771009098 1.09154 1.09535 1.11711 -0.09772008909 1.28773 1.29221 1.31415 -134.92609 0.6932707675 
27 11.5 -0.09771009098 1.09154 1.09535 1.11711 -0.09772008909 1.28773 1.29221 1.31415 -134.92609 0.6932707675 
28 11.5 -0.09771009098 1.09154 1.09535 1.11711 -0.09772008909 1.28773 1.29221 1.31415 -134.92609 0.6932707675 
29 11.5 -0.09771009098 1.09154 1.09535 1.11711 -0.09772008909 1.28773 1.29221 1.31415 -134.92609 0.6932707675 
30 11.5 -0.09771009098 1.09154 1.09535 1.11711 -0.09772008909 1.28773 1.29221 1.31415 -134.92609 0.6932707675 
31 11.5 0.1385602744 1.09154 1.09697 1.12319 0.1385602744 1.28348 1.28984 1.31572 -45.0172488 0.6780674709 
32 11.5 0.1385602744 1.09154 1.09697 1.12319 0.1385602744 1.28348 1.28984 1.31572 -45.0172488 0.6780674709 
33 11.5 0.1385602744 1.09154 1.09697 1.12319 0.1385602744 1.28348 1.28984 1.31572 -45.0172488 0.6780674709 
34 11.5 0.1385602744 1.09154 1.09697 1.12319 0.1385602744 1.28348 1.28984 1.31572 -45.0172488 0.6780674709 
35 11.5 0.1385602744 1.09154 1.09697 1.12319 0.1385602744 1.28348 1.28984 1.31572 -45.0172488 0.6780674709 
36 11.5 -0.1385602744 1.09154 1.09697 1.12319 -0.1385602744 1.28348 1.28984 1.31572 -134.9827512 0.6780674709 
37 11.5 -0.1385602744 1.09154 1.09697 1.12319 -0.1385602744 1.28348 1.28984 1.31572 -134.9827512 0.6780674709 
38 11.5 -0.1385602744 1.09154 1.09697 1.12319 -0.1385602744 1.28348 1.28984 1.31572 -134.9827512 0.6780674709 
39 11.5 -0.1385602744 1.09154 1.09697 1.12319 -0.1385602744 1.28348 1.28984 1.31572 -134.9827512 0.6780674709 
40 11.5 -0.1385602744 1.09154 1.09697 1.12319 -0.1385602744 1.28348 1.28984 1.31572 -134.9827512 0.6780674709 
41 11.5 0.1773105789 1.09154 1.09853 1.13027 0.1773105789 1.27807 1.28622 1.31705 -44.949328 0.6586235087 
42 11.5 0.1773105789 1.09154 1.09853 1.13027 0.1773105789 1.27807 1.28622 1.31705 -44.949328 0.6586235087 
43 11.5 0.1773105789 1.09154 1.09853 1.13027 0.1773105789 1.27807 1.28622 1.31705 -44.949328 0.6586235087 
44 11.5 0.1773105789 1.09154 1.09853 1.13027 0.1773105789 1.27807 1.28622 1.31705 -44.949328 0.6586235087 
45 11.5 0.1773105789 1.09154 1.09853 1.13027 0.1773105789 1.27807 1.28622 1.31705 -44.949328 0.6586235087 
46 11.5 -0.1773105789 1.09154 1.09853 1.13027 -0.1773105789 1.27807 1.28622 1.31705 -135.0506554 0.6586234721 
47 11.5 -0.1773105789 1.09154 1.09853 1.13027 -0.1773105789 1.27807 1.28622 1.31705 -135.0506554 0.6586234721 
48 11.5 -0.1773105789 1.09154 1.09853 1.13027 -0.1773105789 1.27807 1.28622 1.31705 -135.0506554 0.6586234721 
49 11.5 -0.1773105789 1.09154 1.09853 1.13027 -0.1773105789 1.27807 1.28622 1.31705 -135.0506554 0.6586234721 
50 11.5 -0.1773105789 1.09154 1.09853 1.13027 -0.1773105789 1.27807 1.28622 1.31705 -135.0506554 0.6586234721 
51 11.5 0.2134309899 1.09154 1.09996 1.13005 0.2134309899 1.27173 1.28149 1.3091 -44.7118027 0.6340087878 
52 11.5 0.2134309899 1.09154 1.09996 1.13005 0.2134309899 1.27173 1.28149 1.3091 -44.7118027 0.6340087878 
53 11.5 0.2134309899 1.09154 1.09996 1.13005 0.2134309899 1.27173 1.28149 1.3091 -44.7118027 0.6340087878 
54 11.5 0.2134309899 1.09154 1.09996 1.13005 0.2134309899 1.27173 1.28149 1.3091 -44.7118027 0.6340087878 
55 11.5 0.2134309899 1.09154 1.09996 1.13005 0.2134309899 1.27173 1.28149 1.3091 -44.7118027 0.6340087878 
56 11.5 -0.2134309899 1.09154 1.09996 1.13005 -0.2134309899 1.27173 1.28149 1.3091 -135.2882262 0.634008842 
57 11.5 -0.2134309899 1.09154 1.09996 1.13005 -0.2134309899 1.27173 1.28149 1.3091 -135.2882262 0.634008842 
58 11.5 -0.2134309899 1.09154 1.09996 1.13005 -0.2134309899 1.27173 1.28149 1.3091 -135.2882262 0.634008842 
59 11.5 -0.2134309899 1.09154 1.09996 1.13005 -0.2134309899 1.27173 1.28149 1.3091 -135.2882262 0.634008842 
60 11.5 -0.2134309899 1.09154 1.09996 1.13005 -0.2134309899 1.27173 1.28149 1.3091 -135.2882262 0.634008842 
61 11.5 0.2466415202 1.09154 1.10124 1.12727 0.2466515241 1.26469 1.27586 1.29766 -44.4199595 0.6064839804 
62 11.5 0.2466415202 1.09154 1.10124 1.12727 0.2466515241 1.26469 1.27586 1.29766 -44.4199595 0.6064839804 
63 11.5 0.2466415202 1.09154 1.10124 1.12727 0.2466515241 1.26469 1.27586 1.29766 -44.4199595 0.6064839804 
64 11.5 0.2466415202 1.09154 1.10124 1.12727 0.2466515241 1.26469 1.27586 1.29766 -44.4199595 0.6064839804 
65 11.5 0.2466415202 1.09154 1.10124 1.12727 0.2466515241 1.26469 1.27586 1.29766 -44.4199595 0.6064839804 
66 11.5 -0.2466415202 1.09154 1.10124 1.12727 -0.2466515241 1.26469 1.27586 1.29766 -135.5800366 0.6064840205 
67 11.5 -0.2466415202 1.09154 1.10124 1.12727 -0.2466515241 1.26469 1.27586 1.29766 -135.5800366 0.6064840205 
68 11.5 -0.2466415202 1.09154 1.10124 1.12727 -0.2466515241 1.26469 1.27586 1.29766 -135.5800366 0.6064840205 
69 11.5 -0.2466415202 1.09154 1.10124 1.12727 -0.2466515241 1.26469 1.27586 1.29766 -135.5800366 0.6064840205 
70 11.5 -0.2466415202 1.09154 1.10124 1.12727 -0.2466515241 1.26469 1.27586 1.29766 -135.5800366 0.6064840205 
71 11.5 0.2770121451 1.09154 1.1025 1.1336 0.2770121451 1.25709 1.26962 1.29602 -44.3175896 0.5791396455 
72 11.5 0.2770121451 1.09154 1.1025 1.1336 0.2770121451 1.25709 1.26962 1.29602 -44.3175896 0.5791396455 
73 11.5 0.2770121451 1.09154 1.1025 1.1336 0.2770121451 1.25709 1.26962 1.29602 -44.3175896 0.5791396455 
74 11.5 0.2770121451 1.09154 1.1025 1.1336 0.2770121451 1.25709 1.26962 1.29602 -44.3175896 0.5791396455 
75 11.5 0.2770121451 1.09154 1.1025 1.1336 0.2770121451 1.25709 1.26962 1.29602 -44.3175896 0.5791396455 
76 11.5 -0.2770121451 1.09154 1.1025 1.1336 -0.2770121451 1.25709 1.26962 1.29602 -135.6824068 0.5791396086 
77 11.5 -0.2770121451 1.09154 1.1025 1.1336 -0.2770121451 1.25709 1.26962 1.29602 -135.6824068 0.5791396086 
78 11.5 -0.2770121451 1.09154 1.1025 1.1336 -0.2770121451 1.25709 1.26962 1.29602 -135.6824068 0.5791396086 
79 11.5 -0.2770121451 1.09154 1.1025 1.1336 -0.2770121451 1.25709 1.26962 1.29602 -135.6824068 0.5791396086 
80 11.5 -0.2770121451 1.09154 1.1025 1.1336 -0.2770121451 1.25709 1.26962 1.29602 -135.6824068 0.5791396086 
81 11.5 0.3045328664 1.09154 1.10367 1.14109 0.304542876 1.24911 1.26288 1.29512 -44.1994271 0.5503953462 
82 11.5 0.3045328664 1.09154 1.10367 1.14109 0.304542876 1.24911 1.26288 1.29512 -44.1994271 0.5503953462 
83 11.5 0.3045328664 1.09154 1.10367 1.14109 0.304542876 1.24911 1.26288 1.29512 -44.1994271 0.5503953462 
84 11.5 0.3045328664 1.09154 1.10367 1.14109 0.304542876 1.24911 1.26288 1.29512 -44.1994271 0.5503953462 
85 11.5 0.3045328664 1.09154 1.10367 1.14109 0.304542876 1.24911 1.26288 1.29512 -44.1994271 0.5503953462 
86 11.5 -0.3045328664 1.09154 1.10367 1.14109 -0.304542876 1.24911 1.26288 1.29512 -135.8005708 0.5503953662 
87 11.5 -0.3045328664 1.09154 1.10367 1.14109 -0.304542876 1.24911 1.26288 1.29512 -135.8005708 0.5503953662 
88 11.5 -0.3045328664 1.09154 1.10367 1.14109 -0.304542876 1.24911 1.26288 1.29512 -135.8005708 0.5503953662 
89 11.5 -0.3045328664 1.09154 1.10367 1.14109 -0.304542876 1.24911 1.26288 1.29512 -135.8005708 0.5503953662 
90 11.5 -0.3045328664 1.09154 1.10367 1.14109 -0.304542876 1.24911 1.26288 1.29512 -135.8005708 0.5503953662 
91 11.5 0.3293636483 1.09154 1.1048 1.1539 0.3293636483 1.2409 1.25584 1.30005 -44.2184161 0.5220816537 
92 11.5 0.3293636483 1.09154 1.1048 1.1539 0.3293636483 1.2409 1.25584 1.30005 -44.2184161 0.5220816537 
93 11.5 0.3293636483 1.09154 1.1048 1.1539 0.3293636483 1.2409 1.25584 1.30005 -44.2184161 0.5220816537 
94 11.5 0.3293636483 1.09154 1.1048 1.1539 0.3293636483 1.2409 1.25584 1.30005 -44.2184161 0.5220816537 
95 11.5 0.3293636483 1.09154 1.1048 1.1539 0.3293636483 1.2409 1.25584 1.30005 -44.2184161 0.5220816537 
96 11.5 -0.3293636483 1.09154 1.1048 1.1539 -0.3293636483 1.2409 1.25584 1.30005 -135.7815839 0.5220816537 
97 11.5 -0.3293636483 1.09154 1.1048 1.1539 -0.3293636483 1.2409 1.25584 1.30005 -135.7815839 0.5220816537 
98 11.5 -0.3293636483 1.09154 1.1048 1.1539 -0.3293636483 1.2409 1.25584 1.30005 -135.7815839 0.5220816537 
99 11.5 -0.3293636483 1.09154 1.1048 1.1539 -0.3293636483 1.2409 1.25584 1.30005 -135.7815839 0.5220816537 
100 11.5 -0.3293636483 1.09154 1.1048 1.1539 -0.3293636483 1.2409 1.25584 1.30005 -135.7815839 0.5220816537 
101 11.5 0.3514644067 1.09154 1.10573 1.1571 0.3514744105 1.23264 1.24852 1.29415 -43.9965461 0.4915380968 
102 11.5 0.3514644067 1.09154 1.10573 1.1571 0.3514744105 1.23264 1.24852 1.29415 -43.9965461 0.4915380968 
103 11.5 0.3514644067 1.09154 1.10573 1.1571 0.3514744105 1.23264 1.24852 1.29415 -43.9965461 0.4915380968 
104 11.5 0.3514644067 1.09154 1.10573 1.1571 0.3514744105 1.23264 1.24852 1.29415 -43.9965461 0.4915380968 
105 11.5 0.3514644067 1.09154 1.10573 1.1571 0.3514744105 1.23264 1.24852 1.29415 -43.9965461 0.4915380968 
106 11.5 -0.3514644067 1.09154 1.10573 1.1571 -0.3514744105 1.23264 1.24852 1.29415 -136.0034539 0.4915380968 
107 11.5 -0.3514644067 1.09154 1.10573 1.1571 -0.3514744105 1.23264 1.24852 1.29415 -136.0034539 0.4915380968 
108 11.5 -0.3514644067 1.09154 1.10573 1.1571 -0.3514744105 1.23264 1.24852 1.29415 -136.0034539 0.4915380968 
109 11.5 -0.3514644067 1.09154 1.10573 1.1571 -0.3514744105 1.23264 1.24852 1.29415 -136.0034539 0.4915380968 
110 11.5 -0.3514644067 1.09154 1.10573 1.1571 -0.3514744105 1.23264 1.24852 1.29415 -136.0034539 0.4915380968 
111 11.5 0.371015182 1.09154 1.10662 1.16448 0.3710251858 1.22445 1.2412 1.29287 -43.8296419 0.4618550389 
112 11.5 0.371015182 1.09154 1.10662 1.16448 0.3710251858 1.22445 1.2412 1.29287 -43.8296419 0.4618550389 
113 11.5 0.371015182 1.09154 1.10662 1.16448 0.3710251858 1.22445 1.2412 1.29287 -43.8296419 0.4618550389 
114 11.5 0.371015182 1.09154 1.10662 1.16448 0.3710251858 1.22445 1.2412 1.29287 -43.8296419 0.4618550389 
115 11.5 0.371015182 1.09154 1.10662 1.16448 0.3710251858 1.22445 1.2412 1.29287 -43.8296419 0.4618550389 
116 11.5 -0.371015182 1.09154 1.10662 1.16448 -0.3710251858 1.22445 1.2412 1.29287 -136.170344 0.4618550366 
117 11.5 -0.371015182 1.09154 1.10662 1.16448 -0.3710251858 1.22445 1.2412 1.29287 -136.170344 0.4618550366 
118 11.5 -0.371015182 1.09154 1.10662 1.16448 -0.3710251858 1.22445 1.2412 1.29287 -136.170344 0.4618550366 
119 11.5 -0.371015182 1.09154 1.10662 1.16448 -0.3710251858 1.22445 1.2412 1.29287 -136.170344 0.4618550366 
120 11.5 -0.371015182 1.09154 1.10662 1.16448 -0.3710251858 1.22445 1.2412 1.29287 -136.170344 0.4618550366 
121 11.5 0.3882159479 1.09154 1.10744 1.17332 0.3882159479 1.21643 1.23396 1.29322 -43.6449 0.432762314 
122 11.5 0.3882159479 1.09154 1.10744 1.17332 0.3882159479 1.21643 1.23396 1.29322 -43.6449 0.432762314 
123 11.5 0.3882159479 1.09154 1.10744 1.17332 0.3882159479 1.21643 1.23396 1.29322 -43.6449 0.432762314 
124 11.5 0.3882159479 1.09154 1.10744 1.17332 0.3882159479 1.21643 1.23396 1.29322 -43.6449 0.432762314 
125 11.5 0.3882159479 1.09154 1.10744 1.17332 0.3882159479 1.21643 1.23396 1.29322 -43.6449 0.432762314 
126 11.5 -0.3882159479 1.09154 1.10744 1.17332 -0.3882159479 1.21643 1.23396 1.29322 -136.3550973 0.4327623338 
127 11.5 -0.3882159479 1.09154 1.10744 1.17332 -0.3882159479 1.21643 1.23396 1.29322 -136.3550973 0.4327623338 
128 11.5 -0.3882159479 1.09154 1.10744 1.17332 -0.3882159479 1.21643 1.23396 1.29322 -136.3550973 0.4327623338 
129 11.5 -0.3882159479 1.09154 1.10744 1.17332 -0.3882159479 1.21643 1.23396 1.29322 -136.3550973 0.4327623338 
130 11.5 -0.3882159479 1.09154 1.10744 1.17332 -0.3882159479 1.21643 1.23396 1.29322 -136.3550973 0.4327623338 
131 11.5 0.4032966555 1.09154 1.10822 1.18532 0.4033066364 1.20864 1.2269 1.29731 -43.5327763 0.4050801206 
132 11.5 0.4032966555 1.09154 1.10822 1.18532 0.4033066364 1.20864 1.2269 1.29731 -43.5327763 0.4050801206 
133 11.5 0.4032966555 1.09154 1.10822 1.18532 0.4033066364 1.20864 1.2269 1.29731 -43.5327763 0.4050801206 
134 11.5 0.4032966555 1.09154 1.10822 1.18532 0.4033066364 1.20864 1.2269 1.29731 -43.5327763 0.4050801206 
135 11.5 0.4032966555 1.09154 1.10822 1.18532 0.4033066364 1.20864 1.2269 1.29731 -43.5327763 0.4050801206 
136 11.5 -0.4032966555 1.09154 1.10822 1.18532 -0.4033066364 1.20864 1.2269 1.29731 -136.4672237 0.4050801206 
137 11.5 -0.4032966555 1.09154 1.10822 1.18532 -0.4033066364 1.20864 1.2269 1.29731 -136.4672237 0.4050801206 
138 11.5 -0.4032966555 1.09154 1.10822 1.18532 -0.4033066364 1.20864 1.2269 1.29731 -136.4672237 0.4050801206 
139 11.5 -0.4032966555 1.09154 1.10822 1.18532 -0.4033066364 1.20864 1.2269 1.29731 -136.4672237 0.4050801206 
140 11.5 -0.4032966555 1.09154 1.10822 1.18532 -0.4033066364 1.20864 1.2269 1.29731 -136.4672237 0.4050801206 
141 11.5 0.4164473317 1.09154 1.10889 1.19368 0.4164473317 1.20114 1.22001 1.29776 -43.321775 0.3778882395 
142 11.5 0.4164473317 1.09154 1.10889 1.19368 0.4164473317 1.20114 1.22001 1.29776 -43.321775 0.3778882395 
143 11.5 0.4164473317 1.09154 1.10889 1.19368 0.4164473317 1.20114 1.22001 1.29776 -43.321775 0.3778882395 
144 11.5 0.4164473317 1.09154 1.10889 1.19368 0.4164473317 1.20114 1.22001 1.29776 -43.321775 0.3778882395 
145 11.5 0.4164473317 1.09154 1.10889 1.19368 0.4164473317 1.20114 1.22001 1.29776 -43.321775 0.3778882395 
146 11.5 -0.4164473317 1.09154 1.10889 1.19368 -0.4164473317 1.20114 1.22001 1.29776 -136.6782219 0.3778882591 
147 11.5 -0.4164473317 1.09154 1.10889 1.19368 -0.4164473317 1.20114 1.22001 1.29776 -136.6782219 0.3778882591 
148 11.5 -0.4164473317 1.09154 1.10889 1.19368 -0.4164473317 1.20114 1.22001 1.29776 -136.6782219 0.3778882591 
149 11.5 -0.4164473317 1.09154 1.10889 1.19368 -0.4164473317 1.20114 1.22001 1.29776 -136.6782219 0.3778882591 
150 11.5 -0.4164473317 1.09154 1.10889 1.19368 -0.4164473317 1.20114 1.22001 1.29776 -136.6782219 0.3778882591 
151 11.5 0.4278579638 1.09154 1.10951 1.2031 0.4278579638 1.19399 1.2134 1.29957 -43.0768728 0.3518666096 
152 11.5 0.4278579638 1.09154 1.10951 1.2031 0.4278579638 1.19399 1.2134 1.29957 -43.0768728 0.3518666096 
153 11.5 0.4278579638 1.09154 1.10951 1.2031 0.4278579638 1.19399 1.2134 1.29957 -43.0768728 0.3518666096 
154 11.5 0.4278579638 1.09154 1.10951 1.2031 0.4278579638 1.19399 1.2134 1.29957 -43.0768728 0.3518666096 
155 11.5 0.4278579638 1.09154 1.10951 1.2031 0.4278579638 1.19399 1.2134 1.29957 -43.0768728 0.3518666096 
156 11.5 -0.4278579638 1.09154 1.10951 1.2031 -0.4278579638 1.19399 1.2134 1.29957 -136.9231272 0.3518666096 
157 11.5 -0.4278579638 1.09154 1.10951 1.2031 -0.4278579638 1.19399 1.2134 1.29957 -136.9231272 0.3518666096 
158 11.5 -0.4278579638 1.09154 1.10951 1.2031 -0.4278579638 1.19399 1.2134 1.29957 -136.9231272 0.3518666096 
159 11.5 -0.4278579638 1.09154 1.10951 1.2031 -0.4278579638 1.19399 1.2134 1.29957 -136.9231272 0.3518666096 
160 11.5 -0.4278579638 1.09154 1.10951 1.2031 -0.4278579638 1.19399 1.2134 1.29957 -136.9231272 0.3518666096 
161 11.5 0.4377285198 1.09154 1.11009 1.21426 0.4377285198 1.18722 1.20713 1.30353 -42.810634 0.3272153503 
162 11.5 0.4377285198 1.09154 1.11009 1.21426 0.4377285198 1.18722 1.20713 1.30353 -42.810634 0.3272153503 
163 11.5 0.4377285198 1.09154 1.11009 1.21426 0.4377285198 1.18722 1.20713 1.30353 -42.810634 0.3272153503 
164 11.5 0.4377285198 1.09154 1.11009 1.21426 0.4377285198 1.18722 1.20713 1.30353 -42.810634 0.3272153503 
165 11.5 0.4377285198 1.09154 1.11009 1.21426 0.4377285198 1.18722 1.20713 1.30353 -42.810634 0.3272153503 
166 11.5 -0.4377285198 1.09154 1.11009 1.21426 -0.4377285198 1.18722 1.20713 1.30353 -137.189366 0.3272153503 
167 11.5 -0.4377285198 1.09154 1.11009 1.21426 -0.4377285198 1.18722 1.20713 1.30353 -137.189366 0.3272153503 
168 11.5 -0.4377285198 1.09154 1.11009 1.21426 -0.4377285198 1.18722 1.20713 1.30353 -137.189366 0.3272153503 
169 11.5 -0.4377285198 1.09154 1.11009 1.21426 -0.4377285198 1.18722 1.20713 1.30353 -137.189366 0.3272153503 
170 11.5 -0.4377285198 1.09154 1.11009 1.21426 -0.4377285198 1.18722 1.20713 1.30353 -137.189366 0.3272153503 
999 11 0 1.43088 1.43088 1.43088 0 1.5 1.5 1.5 45.000004 0.25456032 
